-- Found ament_cmake: 1.3.6 (/opt/ros/humble/share/ament_cmake/cmake)
-- Found geometry_msgs: 4.2.3 (/opt/ros/humble/share/geometry_msgs/cmake)
-- Found rosidl_generator_c: 3.1.5 (/opt/ros/humble/share/rosidl_generator_c/cmake)
-- Found rosidl_adapter: 3.1.5 (/opt/ros/humble/share/rosidl_adapter/cmake)
-- Found rosidl_generator_cpp: 3.1.5 (/opt/ros/humble/share/rosidl_generator_cpp/cmake)
-- Using all available rosidl_typesupport_c: rosidl_typesupport_fastrtps_c;rosidl_typesupport_introspection_c
-- Using all available rosidl_typesupport_cpp: rosidl_typesupport_fastrtps_cpp;rosidl_typesupport_introspection_cpp
-- Found sensor_msgs: 4.2.3 (/opt/ros/humble/share/sensor_msgs/cmake)
-- Found rclcpp: 16.0.7 (/opt/ros/humble/share/rclcpp/cmake)
-- Found rmw_implementation_cmake: 6.1.1 (/opt/ros/humble/share/rmw_implementation_cmake/cmake)
-- Found rmw_fastrtps_cpp: 6.2.5 (/opt/ros/humble/share/rmw_fastrtps_cpp/cmake)
-- Using RMW implementation 'rmw_fastrtps_cpp' as default
-- Found rosidl_default_generators: 1.2.0 (/opt/ros/humble/share/rosidl_default_generators/cmake)
-- Found ament_cmake_ros: 0.10.0 (/opt/ros/humble/share/ament_cmake_ros/cmake)
-- Using all available rosidl_typesupport_c: rosidl_typesupport_fastrtps_c;rosidl_typesupport_introspection_c
-- Using all available rosidl_typesupport_cpp: rosidl_typesupport_fastrtps_cpp;rosidl_typesupport_introspection_cpp
-- Found python_cmake_module: 0.10.0 (/opt/ros/humble/share/python_cmake_module/cmake)
-- Using PYTHON_EXECUTABLE: /home/umrob/anaconda3/bin/python3
-- Using PYTHON_INCLUDE_DIRS: /home/umrob/anaconda3/include/python3.8
-- Using PYTHON_LIBRARIES: /home/umrob/anaconda3/lib/libpython3.8.so
-- Using numpy include directory: /home/umrob/anaconda3/lib/python3.8/site-packages/numpy/core/include
-- Found ament_lint_auto: 0.12.9 (/opt/ros/humble/share/ament_lint_auto/cmake)
-- Added test 'cppcheck' to perform static code analysis on C / C++ code
-- Configured cppcheck include dirs: /home/umrob/M2/ros-2-planar-robot-p-4/include;$<BUILD_INTERFACE:/home/umrob/M2/ros-2-planar-robot-p-4/build/ros2_planar_robot/rosidl_generator_c>;$<BUILD_INTERFACE:/home/umrob/M2/ros-2-planar-robot-p-4/build/ros2_planar_robot/rosidl_typesupport_fastrtps_c>;$<BUILD_INTERFACE:/home/umrob/M2/ros-2-planar-robot-p-4/build/ros2_planar_robot/rosidl_generator_cpp>;$<BUILD_INTERFACE:/home/umrob/M2/ros-2-planar-robot-p-4/build/ros2_planar_robot/rosidl_typesupport_fastrtps_cpp>;$<BUILD_INTERFACE:/home/umrob/M2/ros-2-planar-robot-p-4/build/ros2_planar_robot/rosidl_typesupport_introspection_c>;$<BUILD_INTERFACE:/home/umrob/M2/ros-2-planar-robot-p-4/build/ros2_planar_robot/rosidl_typesupport_introspection_cpp>;/home/umrob/M2/ros-2-planar-robot-p-4/build/ros2_planar_robot/rosidl_generator_c;/home/umrob/M2/ros-2-planar-robot-p-4/build/ros2_planar_robot/rosidl_generator_py
-- Configured cppcheck exclude dirs and/or files: 
-- Added test 'flake8' to check Python code syntax and style conventions
-- Added test 'lint_cmake' to check CMake code style
-- Added test 'pep257' to check Python code against some of the docstring style conventions in PEP 257
-- Added test 'uncrustify' to check C / C++ code style
-- Configured uncrustify additional arguments: 
-- Added test 'xmllint' to check XML markup files
-- Configuring done
-- Generating done
-- Build files have been written to: /home/umrob/M2/ros-2-planar-robot-p-4/build/ros2_planar_robot
[35m[1mConsolidate compiler generated dependencies of target kinematic_model_lib[0m
[35m[1mConsolidate compiler generated dependencies of target trajectory_generation_lib[0m
[35m[1mConsolidate compiler generated dependencies of target ros2_planar_robot__rosidl_generator_c[0m
[  1%] Built target ros2_planar_robot__cpp
[  1%] Built target ament_cmake_python_copy_ros2_planar_robot
[35m[1mConsolidate compiler generated dependencies of target ros2_planar_robot__rosidl_typesupport_introspection_cpp[0m
[35m[1mConsolidate compiler generated dependencies of target ros2_planar_robot__rosidl_typesupport_fastrtps_cpp[0m
[35m[1mConsolidate compiler generated dependencies of target ros2_planar_robot__rosidl_typesupport_cpp[0m
[ 10%] Built target ros2_planar_robot__rosidl_generator_c
[ 12%] Built target trajectory_generation_lib
[ 14%] Built target kinematic_model_lib
[35m[1mConsolidate compiler generated dependencies of target ros2_planar_robot__rosidl_typesupport_fastrtps_c[0m
[35m[1mConsolidate compiler generated dependencies of target ros2_planar_robot__rosidl_typesupport_introspection_c[0m
[ 26%] Built target ros2_planar_robot__rosidl_typesupport_cpp
[ 32%] Built target ros2_planar_robot__rosidl_typesupport_introspection_cpp
[35m[1mConsolidate compiler generated dependencies of target ros2_planar_robot__rosidl_typesupport_c[0m
[35m[1mConsolidate compiler generated dependencies of target control_lib[0m
[ 42%] Built target ros2_planar_robot__rosidl_typesupport_fastrtps_cpp
[35m[1mConsolidate compiler generated dependencies of target high_lev_mng[0m
[ 51%] Built target ros2_planar_robot__rosidl_typesupport_introspection_c
[ 60%] Built target ros2_planar_robot__rosidl_typesupport_c
[35m[1mConsolidate compiler generated dependencies of target trajectory_generator[0m
[35m[1mConsolidate compiler generated dependencies of target kinematic_modeller[0m
[ 70%] Built target ros2_planar_robot__rosidl_typesupport_fastrtps_c
[ 72%] Built target control_lib
[35m[1mConsolidate compiler generated dependencies of target simulator[0m
[35m[1mConsolidate compiler generated dependencies of target disturbance_generator[0m
[35m[1mConsolidate compiler generated dependencies of target controller[0m
[ 74%] Built target high_lev_mng
[ 76%] Built target kinematic_modeller
[ 78%] Built target trajectory_generator
[ 78%] Built target ros2_planar_robot
[ 80%] Built target simulator
[ 82%] Built target disturbance_generator
[ 84%] Built target controller
[ 85%] Built target ros2_planar_robot__py
[35m[1mConsolidate compiler generated dependencies of target ros2_planar_robot__rosidl_generator_py[0m
[ 93%] Built target ros2_planar_robot__rosidl_generator_py
[35m[1mConsolidate compiler generated dependencies of target ros2_planar_robot__rosidl_typesupport_c__pyext[0m
[35m[1mConsolidate compiler generated dependencies of target ros2_planar_robot__rosidl_typesupport_fastrtps_c__pyext[0m
[35m[1mConsolidate compiler generated dependencies of target ros2_planar_robot__rosidl_typesupport_introspection_c__pyext[0m
[ 95%] Built target ros2_planar_robot__rosidl_typesupport_c__pyext
[ 97%] Built target ros2_planar_robot__rosidl_typesupport_fastrtps_c__pyext
[100%] Built target ros2_planar_robot__rosidl_typesupport_introspection_c__pyext
running egg_info
writing ros2_planar_robot.egg-info/PKG-INFO
writing dependency_links to ros2_planar_robot.egg-info/dependency_links.txt
writing top-level names to ros2_planar_robot.egg-info/top_level.txt
reading manifest file 'ros2_planar_robot.egg-info/SOURCES.txt'
writing manifest file 'ros2_planar_robot.egg-info/SOURCES.txt'
[100%] Built target ament_cmake_python_build_ros2_planar_robot_egg
-- Install configuration: ""
-- Up-to-date: /home/umrob/M2/ros-2-planar-robot-p-4/install/ros2_planar_robot/share/ament_index/resource_index/rosidl_interfaces/ros2_planar_robot
-- Up-to-date: /home/umrob/M2/ros-2-planar-robot-p-4/install/ros2_planar_robot/include/ros2_planar_robot/ros2_planar_robot
-- Up-to-date: /home/umrob/M2/ros-2-planar-robot-p-4/install/ros2_planar_robot/include/ros2_planar_robot/ros2_planar_robot/msg
-- Up-to-date: /home/umrob/M2/ros-2-planar-robot-p-4/install/ros2_planar_robot/include/ros2_planar_robot/ros2_planar_robot/msg/detail
-- Up-to-date: /home/umrob/M2/ros-2-planar-robot-p-4/install/ros2_planar_robot/include/ros2_planar_robot/ros2_planar_robot/msg/detail/velocity__type_support.h
-- Up-to-date: /home/umrob/M2/ros-2-planar-robot-p-4/install/ros2_planar_robot/include/ros2_planar_robot/ros2_planar_robot/msg/detail/ref_pose__functions.c
-- Up-to-date: /home/umrob/M2/ros-2-planar-robot-p-4/install/ros2_planar_robot/include/ros2_planar_robot/ros2_planar_robot/msg/detail/cartesian_state__functions.h
-- Up-to-date: /home/umrob/M2/ros-2-planar-robot-p-4/install/ros2_planar_robot/include/ros2_planar_robot/ros2_planar_robot/msg/detail/pose__functions.c
-- Up-to-date: /home/umrob/M2/ros-2-planar-robot-p-4/install/ros2_planar_robot/include/ros2_planar_robot/ros2_planar_robot/msg/detail/joint_velocity__type_support.h
-- Up-to-date: /home/umrob/M2/ros-2-planar-robot-p-4/install/ros2_planar_robot/include/ros2_planar_robot/ros2_planar_robot/msg/detail/pose__type_support.h
-- Up-to-date: /home/umrob/M2/ros-2-planar-robot-p-4/install/ros2_planar_robot/include/ros2_planar_robot/ros2_planar_robot/msg/detail/joint_position__type_support.h
-- Up-to-date: /home/umrob/M2/ros-2-planar-robot-p-4/install/ros2_planar_robot/include/ros2_planar_robot/ros2_planar_robot/msg/detail/velocity__functions.c
-- Up-to-date: /home/umrob/M2/ros-2-planar-robot-p-4/install/ros2_planar_robot/include/ros2_planar_robot/ros2_planar_robot/msg/detail/kin_data__struct.h
-- Up-to-date: /home/umrob/M2/ros-2-planar-robot-p-4/install/ros2_planar_robot/include/ros2_planar_robot/ros2_planar_robot/msg/detail/kin_data__functions.h
-- Up-to-date: /home/umrob/M2/ros-2-planar-robot-p-4/install/ros2_planar_robot/include/ros2_planar_robot/ros2_planar_robot/msg/detail/joint_velocity__functions.c
-- Up-to-date: /home/umrob/M2/ros-2-planar-robot-p-4/install/ros2_planar_robot/include/ros2_planar_robot/ros2_planar_robot/msg/detail/kin_data__functions.c
-- Up-to-date: /home/umrob/M2/ros-2-planar-robot-p-4/install/ros2_planar_robot/include/ros2_planar_robot/ros2_planar_robot/msg/detail/ref_pose__type_support.h
-- Up-to-date: /home/umrob/M2/ros-2-planar-robot-p-4/install/ros2_planar_robot/include/ros2_planar_robot/ros2_planar_robot/msg/detail/velocity__struct.h
-- Up-to-date: /home/umrob/M2/ros-2-planar-robot-p-4/install/ros2_planar_robot/include/ros2_planar_robot/ros2_planar_robot/msg/detail/ref_pose__functions.h
-- Up-to-date: /home/umrob/M2/ros-2-planar-robot-p-4/install/ros2_planar_robot/include/ros2_planar_robot/ros2_planar_robot/msg/detail/velocity__functions.h
-- Up-to-date: /home/umrob/M2/ros-2-planar-robot-p-4/install/ros2_planar_robot/include/ros2_planar_robot/ros2_planar_robot/msg/detail/cartesian_state__struct.h
-- Up-to-date: /home/umrob/M2/ros-2-planar-robot-p-4/install/ros2_planar_robot/include/ros2_planar_robot/ros2_planar_robot/msg/detail/ref_pose__struct.h
-- Up-to-date: /home/umrob/M2/ros-2-planar-robot-p-4/install/ros2_planar_robot/include/ros2_planar_robot/ros2_planar_robot/msg/detail/joint_position__struct.h
-- Up-to-date: /home/umrob/M2/ros-2-planar-robot-p-4/install/ros2_planar_robot/include/ros2_planar_robot/ros2_planar_robot/msg/detail/cartesian_state__functions.c
-- Up-to-date: /home/umrob/M2/ros-2-planar-robot-p-4/install/ros2_planar_robot/include/ros2_planar_robot/ros2_planar_robot/msg/detail/joint_velocity__struct.h
-- Up-to-date: /home/umrob/M2/ros-2-planar-robot-p-4/install/ros2_planar_robot/include/ros2_planar_robot/ros2_planar_robot/msg/detail/pose__struct.h
-- Up-to-date: /home/umrob/M2/ros-2-planar-robot-p-4/install/ros2_planar_robot/include/ros2_planar_robot/ros2_planar_robot/msg/detail/joint_position__functions.c
-- Up-to-date: /home/umrob/M2/ros-2-planar-robot-p-4/install/ros2_planar_robot/include/ros2_planar_robot/ros2_planar_robot/msg/detail/cartesian_state__type_support.h
-- Up-to-date: /home/umrob/M2/ros-2-planar-robot-p-4/install/ros2_planar_robot/include/ros2_planar_robot/ros2_planar_robot/msg/detail/pose__functions.h
-- Up-to-date: /home/umrob/M2/ros-2-planar-robot-p-4/install/ros2_planar_robot/include/ros2_planar_robot/ros2_planar_robot/msg/detail/joint_position__functions.h
-- Up-to-date: /home/umrob/M2/ros-2-planar-robot-p-4/install/ros2_planar_robot/include/ros2_planar_robot/ros2_planar_robot/msg/detail/joint_velocity__functions.h
-- Up-to-date: /home/umrob/M2/ros-2-planar-robot-p-4/install/ros2_planar_robot/include/ros2_planar_robot/ros2_planar_robot/msg/detail/kin_data__type_support.h
-- Up-to-date: /home/umrob/M2/ros-2-planar-robot-p-4/install/ros2_planar_robot/include/ros2_planar_robot/ros2_planar_robot/msg/velocity.h
-- Up-to-date: /home/umrob/M2/ros-2-planar-robot-p-4/install/ros2_planar_robot/include/ros2_planar_robot/ros2_planar_robot/msg/pose.h
-- Up-to-date: /home/umrob/M2/ros-2-planar-robot-p-4/install/ros2_planar_robot/include/ros2_planar_robot/ros2_planar_robot/msg/joint_velocity.h
-- Up-to-date: /home/umrob/M2/ros-2-planar-robot-p-4/install/ros2_planar_robot/include/ros2_planar_robot/ros2_planar_robot/msg/ref_pose.h
-- Up-to-date: /home/umrob/M2/ros-2-planar-robot-p-4/install/ros2_planar_robot/include/ros2_planar_robot/ros2_planar_robot/msg/cartesian_state.h
-- Up-to-date: /home/umrob/M2/ros-2-planar-robot-p-4/install/ros2_planar_robot/include/ros2_planar_robot/ros2_planar_robot/msg/rosidl_generator_c__visibility_control.h
-- Up-to-date: /home/umrob/M2/ros-2-planar-robot-p-4/install/ros2_planar_robot/include/ros2_planar_robot/ros2_planar_robot/msg/kin_data.h
-- Up-to-date: /home/umrob/M2/ros-2-planar-robot-p-4/install/ros2_planar_robot/include/ros2_planar_robot/ros2_planar_robot/msg/joint_position.h
-- Up-to-date: /home/umrob/M2/ros-2-planar-robot-p-4/install/ros2_planar_robot/share/ros2_planar_robot/environment/library_path.sh
-- Installing: /home/umrob/M2/ros-2-planar-robot-p-4/install/ros2_planar_robot/share/ros2_planar_robot/environment/library_path.dsv
-- Up-to-date: /home/umrob/M2/ros-2-planar-robot-p-4/install/ros2_planar_robot/lib/libros2_planar_robot__rosidl_generator_c.so
-- Up-to-date: /home/umrob/M2/ros-2-planar-robot-p-4/install/ros2_planar_robot/include/ros2_planar_robot/ros2_planar_robot
-- Up-to-date: /home/umrob/M2/ros-2-planar-robot-p-4/install/ros2_planar_robot/include/ros2_planar_robot/ros2_planar_robot/msg
-- Up-to-date: /home/umrob/M2/ros-2-planar-robot-p-4/install/ros2_planar_robot/include/ros2_planar_robot/ros2_planar_robot/msg/detail
-- Up-to-date: /home/umrob/M2/ros-2-planar-robot-p-4/install/ros2_planar_robot/include/ros2_planar_robot/ros2_planar_robot/msg/detail/pose__rosidl_typesupport_fastrtps_c.h
-- Up-to-date: /home/umrob/M2/ros-2-planar-robot-p-4/install/ros2_planar_robot/include/ros2_planar_robot/ros2_planar_robot/msg/detail/ref_pose__rosidl_typesupport_fastrtps_c.h
-- Up-to-date: /home/umrob/M2/ros-2-planar-robot-p-4/install/ros2_planar_robot/include/ros2_planar_robot/ros2_planar_robot/msg/detail/joint_velocity__rosidl_typesupport_fastrtps_c.h
-- Up-to-date: /home/umrob/M2/ros-2-planar-robot-p-4/install/ros2_planar_robot/include/ros2_planar_robot/ros2_planar_robot/msg/detail/cartesian_state__rosidl_typesupport_fastrtps_c.h
-- Up-to-date: /home/umrob/M2/ros-2-planar-robot-p-4/install/ros2_planar_robot/include/ros2_planar_robot/ros2_planar_robot/msg/detail/velocity__rosidl_typesupport_fastrtps_c.h
-- Up-to-date: /home/umrob/M2/ros-2-planar-robot-p-4/install/ros2_planar_robot/include/ros2_planar_robot/ros2_planar_robot/msg/detail/kin_data__rosidl_typesupport_fastrtps_c.h
-- Up-to-date: /home/umrob/M2/ros-2-planar-robot-p-4/install/ros2_planar_robot/include/ros2_planar_robot/ros2_planar_robot/msg/detail/joint_position__rosidl_typesupport_fastrtps_c.h
-- Up-to-date: /home/umrob/M2/ros-2-planar-robot-p-4/install/ros2_planar_robot/include/ros2_planar_robot/ros2_planar_robot/msg/rosidl_typesupport_fastrtps_c__visibility_control.h
-- Up-to-date: /home/umrob/M2/ros-2-planar-robot-p-4/install/ros2_planar_robot/lib/libros2_planar_robot__rosidl_typesupport_fastrtps_c.so
-- Up-to-date: /home/umrob/M2/ros-2-planar-robot-p-4/install/ros2_planar_robot/include/ros2_planar_robot/ros2_planar_robot
-- Up-to-date: /home/umrob/M2/ros-2-planar-robot-p-4/install/ros2_planar_robot/include/ros2_planar_robot/ros2_planar_robot/msg
-- Up-to-date: /home/umrob/M2/ros-2-planar-robot-p-4/install/ros2_planar_robot/include/ros2_planar_robot/ros2_planar_robot/msg/detail
-- Up-to-date: /home/umrob/M2/ros-2-planar-robot-p-4/install/ros2_planar_robot/include/ros2_planar_robot/ros2_planar_robot/msg/detail/joint_velocity__struct.hpp
-- Up-to-date: /home/umrob/M2/ros-2-planar-robot-p-4/install/ros2_planar_robot/include/ros2_planar_robot/ros2_planar_robot/msg/detail/cartesian_state__struct.hpp
-- Up-to-date: /home/umrob/M2/ros-2-planar-robot-p-4/install/ros2_planar_robot/include/ros2_planar_robot/ros2_planar_robot/msg/detail/velocity__traits.hpp
-- Up-to-date: /home/umrob/M2/ros-2-planar-robot-p-4/install/ros2_planar_robot/include/ros2_planar_robot/ros2_planar_robot/msg/detail/kin_data__traits.hpp
-- Up-to-date: /home/umrob/M2/ros-2-planar-robot-p-4/install/ros2_planar_robot/include/ros2_planar_robot/ros2_planar_robot/msg/detail/kin_data__struct.hpp
-- Up-to-date: /home/umrob/M2/ros-2-planar-robot-p-4/install/ros2_planar_robot/include/ros2_planar_robot/ros2_planar_robot/msg/detail/joint_position__struct.hpp
-- Up-to-date: /home/umrob/M2/ros-2-planar-robot-p-4/install/ros2_planar_robot/include/ros2_planar_robot/ros2_planar_robot/msg/detail/ref_pose__traits.hpp
-- Up-to-date: /home/umrob/M2/ros-2-planar-robot-p-4/install/ros2_planar_robot/include/ros2_planar_robot/ros2_planar_robot/msg/detail/joint_position__traits.hpp
-- Up-to-date: /home/umrob/M2/ros-2-planar-robot-p-4/install/ros2_planar_robot/include/ros2_planar_robot/ros2_planar_robot/msg/detail/kin_data__builder.hpp
-- Up-to-date: /home/umrob/M2/ros-2-planar-robot-p-4/install/ros2_planar_robot/include/ros2_planar_robot/ros2_planar_robot/msg/detail/ref_pose__builder.hpp
-- Up-to-date: /home/umrob/M2/ros-2-planar-robot-p-4/install/ros2_planar_robot/include/ros2_planar_robot/ros2_planar_robot/msg/detail/joint_velocity__builder.hpp
-- Up-to-date: /home/umrob/M2/ros-2-planar-robot-p-4/install/ros2_planar_robot/include/ros2_planar_robot/ros2_planar_robot/msg/detail/pose__traits.hpp
-- Up-to-date: /home/umrob/M2/ros-2-planar-robot-p-4/install/ros2_planar_robot/include/ros2_planar_robot/ros2_planar_robot/msg/detail/cartesian_state__traits.hpp
-- Up-to-date: /home/umrob/M2/ros-2-planar-robot-p-4/install/ros2_planar_robot/include/ros2_planar_robot/ros2_planar_robot/msg/detail/ref_pose__struct.hpp
-- Up-to-date: /home/umrob/M2/ros-2-planar-robot-p-4/install/ros2_planar_robot/include/ros2_planar_robot/ros2_planar_robot/msg/detail/pose__builder.hpp
-- Up-to-date: /home/umrob/M2/ros-2-planar-robot-p-4/install/ros2_planar_robot/include/ros2_planar_robot/ros2_planar_robot/msg/detail/pose__struct.hpp
-- Up-to-date: /home/umrob/M2/ros-2-planar-robot-p-4/install/ros2_planar_robot/include/ros2_planar_robot/ros2_planar_robot/msg/detail/joint_position__builder.hpp
-- Up-to-date: /home/umrob/M2/ros-2-planar-robot-p-4/install/ros2_planar_robot/include/ros2_planar_robot/ros2_planar_robot/msg/detail/cartesian_state__builder.hpp
-- Up-to-date: /home/umrob/M2/ros-2-planar-robot-p-4/install/ros2_planar_robot/include/ros2_planar_robot/ros2_planar_robot/msg/detail/velocity__builder.hpp
-- Up-to-date: /home/umrob/M2/ros-2-planar-robot-p-4/install/ros2_planar_robot/include/ros2_planar_robot/ros2_planar_robot/msg/detail/joint_velocity__traits.hpp
-- Up-to-date: /home/umrob/M2/ros-2-planar-robot-p-4/install/ros2_planar_robot/include/ros2_planar_robot/ros2_planar_robot/msg/detail/velocity__struct.hpp
-- Up-to-date: /home/umrob/M2/ros-2-planar-robot-p-4/install/ros2_planar_robot/include/ros2_planar_robot/ros2_planar_robot/msg/ref_pose.hpp
-- Up-to-date: /home/umrob/M2/ros-2-planar-robot-p-4/install/ros2_planar_robot/include/ros2_planar_robot/ros2_planar_robot/msg/joint_position.hpp
-- Up-to-date: /home/umrob/M2/ros-2-planar-robot-p-4/install/ros2_planar_robot/include/ros2_planar_robot/ros2_planar_robot/msg/cartesian_state.hpp
-- Up-to-date: /home/umrob/M2/ros-2-planar-robot-p-4/install/ros2_planar_robot/include/ros2_planar_robot/ros2_planar_robot/msg/kin_data.hpp
-- Up-to-date: /home/umrob/M2/ros-2-planar-robot-p-4/install/ros2_planar_robot/include/ros2_planar_robot/ros2_planar_robot/msg/pose.hpp
-- Up-to-date: /home/umrob/M2/ros-2-planar-robot-p-4/install/ros2_planar_robot/include/ros2_planar_robot/ros2_planar_robot/msg/joint_velocity.hpp
-- Up-to-date: /home/umrob/M2/ros-2-planar-robot-p-4/install/ros2_planar_robot/include/ros2_planar_robot/ros2_planar_robot/msg/velocity.hpp
-- Up-to-date: /home/umrob/M2/ros-2-planar-robot-p-4/install/ros2_planar_robot/include/ros2_planar_robot/ros2_planar_robot
-- Up-to-date: /home/umrob/M2/ros-2-planar-robot-p-4/install/ros2_planar_robot/include/ros2_planar_robot/ros2_planar_robot/msg
-- Up-to-date: /home/umrob/M2/ros-2-planar-robot-p-4/install/ros2_planar_robot/include/ros2_planar_robot/ros2_planar_robot/msg/detail
-- Up-to-date: /home/umrob/M2/ros-2-planar-robot-p-4/install/ros2_planar_robot/include/ros2_planar_robot/ros2_planar_robot/msg/detail/velocity__rosidl_typesupport_fastrtps_cpp.hpp
-- Up-to-date: /home/umrob/M2/ros-2-planar-robot-p-4/install/ros2_planar_robot/include/ros2_planar_robot/ros2_planar_robot/msg/detail/joint_velocity__rosidl_typesupport_fastrtps_cpp.hpp
-- Up-to-date: /home/umrob/M2/ros-2-planar-robot-p-4/install/ros2_planar_robot/include/ros2_planar_robot/ros2_planar_robot/msg/detail/pose__rosidl_typesupport_fastrtps_cpp.hpp
-- Up-to-date: /home/umrob/M2/ros-2-planar-robot-p-4/install/ros2_planar_robot/include/ros2_planar_robot/ros2_planar_robot/msg/detail/dds_fastrtps
-- Up-to-date: /home/umrob/M2/ros-2-planar-robot-p-4/install/ros2_planar_robot/include/ros2_planar_robot/ros2_planar_robot/msg/detail/cartesian_state__rosidl_typesupport_fastrtps_cpp.hpp
-- Up-to-date: /home/umrob/M2/ros-2-planar-robot-p-4/install/ros2_planar_robot/include/ros2_planar_robot/ros2_planar_robot/msg/detail/ref_pose__rosidl_typesupport_fastrtps_cpp.hpp
-- Up-to-date: /home/umrob/M2/ros-2-planar-robot-p-4/install/ros2_planar_robot/include/ros2_planar_robot/ros2_planar_robot/msg/detail/joint_position__rosidl_typesupport_fastrtps_cpp.hpp
-- Up-to-date: /home/umrob/M2/ros-2-planar-robot-p-4/install/ros2_planar_robot/include/ros2_planar_robot/ros2_planar_robot/msg/detail/kin_data__rosidl_typesupport_fastrtps_cpp.hpp
-- Up-to-date: /home/umrob/M2/ros-2-planar-robot-p-4/install/ros2_planar_robot/include/ros2_planar_robot/ros2_planar_robot/msg/rosidl_typesupport_fastrtps_cpp__visibility_control.h
-- Up-to-date: /home/umrob/M2/ros-2-planar-robot-p-4/install/ros2_planar_robot/lib/libros2_planar_robot__rosidl_typesupport_fastrtps_cpp.so
-- Up-to-date: /home/umrob/M2/ros-2-planar-robot-p-4/install/ros2_planar_robot/include/ros2_planar_robot/ros2_planar_robot
-- Up-to-date: /home/umrob/M2/ros-2-planar-robot-p-4/install/ros2_planar_robot/include/ros2_planar_robot/ros2_planar_robot/msg
-- Up-to-date: /home/umrob/M2/ros-2-planar-robot-p-4/install/ros2_planar_robot/include/ros2_planar_robot/ros2_planar_robot/msg/detail
-- Up-to-date: /home/umrob/M2/ros-2-planar-robot-p-4/install/ros2_planar_robot/include/ros2_planar_robot/ros2_planar_robot/msg/detail/pose__rosidl_typesupport_introspection_c.h
-- Up-to-date: /home/umrob/M2/ros-2-planar-robot-p-4/install/ros2_planar_robot/include/ros2_planar_robot/ros2_planar_robot/msg/detail/kin_data__rosidl_typesupport_introspection_c.h
-- Up-to-date: /home/umrob/M2/ros-2-planar-robot-p-4/install/ros2_planar_robot/include/ros2_planar_robot/ros2_planar_robot/msg/detail/kin_data__type_support.c
-- Up-to-date: /home/umrob/M2/ros-2-planar-robot-p-4/install/ros2_planar_robot/include/ros2_planar_robot/ros2_planar_robot/msg/detail/ref_pose__type_support.c
-- Up-to-date: /home/umrob/M2/ros-2-planar-robot-p-4/install/ros2_planar_robot/include/ros2_planar_robot/ros2_planar_robot/msg/detail/pose__type_support.c
-- Up-to-date: /home/umrob/M2/ros-2-planar-robot-p-4/install/ros2_planar_robot/include/ros2_planar_robot/ros2_planar_robot/msg/detail/velocity__type_support.c
-- Up-to-date: /home/umrob/M2/ros-2-planar-robot-p-4/install/ros2_planar_robot/include/ros2_planar_robot/ros2_planar_robot/msg/detail/joint_position__rosidl_typesupport_introspection_c.h
-- Up-to-date: /home/umrob/M2/ros-2-planar-robot-p-4/install/ros2_planar_robot/include/ros2_planar_robot/ros2_planar_robot/msg/detail/velocity__rosidl_typesupport_introspection_c.h
-- Up-to-date: /home/umrob/M2/ros-2-planar-robot-p-4/install/ros2_planar_robot/include/ros2_planar_robot/ros2_planar_robot/msg/detail/ref_pose__rosidl_typesupport_introspection_c.h
-- Up-to-date: /home/umrob/M2/ros-2-planar-robot-p-4/install/ros2_planar_robot/include/ros2_planar_robot/ros2_planar_robot/msg/detail/joint_position__type_support.c
-- Up-to-date: /home/umrob/M2/ros-2-planar-robot-p-4/install/ros2_planar_robot/include/ros2_planar_robot/ros2_planar_robot/msg/detail/joint_velocity__rosidl_typesupport_introspection_c.h
-- Up-to-date: /home/umrob/M2/ros-2-planar-robot-p-4/install/ros2_planar_robot/include/ros2_planar_robot/ros2_planar_robot/msg/detail/joint_velocity__type_support.c
-- Up-to-date: /home/umrob/M2/ros-2-planar-robot-p-4/install/ros2_planar_robot/include/ros2_planar_robot/ros2_planar_robot/msg/detail/cartesian_state__rosidl_typesupport_introspection_c.h
-- Up-to-date: /home/umrob/M2/ros-2-planar-robot-p-4/install/ros2_planar_robot/include/ros2_planar_robot/ros2_planar_robot/msg/detail/cartesian_state__type_support.c
-- Up-to-date: /home/umrob/M2/ros-2-planar-robot-p-4/install/ros2_planar_robot/include/ros2_planar_robot/ros2_planar_robot/msg/rosidl_typesupport_introspection_c__visibility_control.h
-- Up-to-date: /home/umrob/M2/ros-2-planar-robot-p-4/install/ros2_planar_robot/lib/libros2_planar_robot__rosidl_typesupport_introspection_c.so
-- Up-to-date: /home/umrob/M2/ros-2-planar-robot-p-4/install/ros2_planar_robot/lib/libros2_planar_robot__rosidl_typesupport_c.so
-- Up-to-date: /home/umrob/M2/ros-2-planar-robot-p-4/install/ros2_planar_robot/include/ros2_planar_robot/ros2_planar_robot
-- Up-to-date: /home/umrob/M2/ros-2-planar-robot-p-4/install/ros2_planar_robot/include/ros2_planar_robot/ros2_planar_robot/msg
-- Up-to-date: /home/umrob/M2/ros-2-planar-robot-p-4/install/ros2_planar_robot/include/ros2_planar_robot/ros2_planar_robot/msg/detail
-- Up-to-date: /home/umrob/M2/ros-2-planar-robot-p-4/install/ros2_planar_robot/include/ros2_planar_robot/ros2_planar_robot/msg/detail/kin_data__rosidl_typesupport_introspection_cpp.hpp
-- Up-to-date: /home/umrob/M2/ros-2-planar-robot-p-4/install/ros2_planar_robot/include/ros2_planar_robot/ros2_planar_robot/msg/detail/kin_data__type_support.cpp
-- Up-to-date: /home/umrob/M2/ros-2-planar-robot-p-4/install/ros2_planar_robot/include/ros2_planar_robot/ros2_planar_robot/msg/detail/joint_velocity__rosidl_typesupport_introspection_cpp.hpp
-- Up-to-date: /home/umrob/M2/ros-2-planar-robot-p-4/install/ros2_planar_robot/include/ros2_planar_robot/ros2_planar_robot/msg/detail/ref_pose__rosidl_typesupport_introspection_cpp.hpp
-- Up-to-date: /home/umrob/M2/ros-2-planar-robot-p-4/install/ros2_planar_robot/include/ros2_planar_robot/ros2_planar_robot/msg/detail/velocity__rosidl_typesupport_introspection_cpp.hpp
-- Up-to-date: /home/umrob/M2/ros-2-planar-robot-p-4/install/ros2_planar_robot/include/ros2_planar_robot/ros2_planar_robot/msg/detail/joint_position__rosidl_typesupport_introspection_cpp.hpp
-- Up-to-date: /home/umrob/M2/ros-2-planar-robot-p-4/install/ros2_planar_robot/include/ros2_planar_robot/ros2_planar_robot/msg/detail/cartesian_state__type_support.cpp
-- Up-to-date: /home/umrob/M2/ros-2-planar-robot-p-4/install/ros2_planar_robot/include/ros2_planar_robot/ros2_planar_robot/msg/detail/pose__type_support.cpp
-- Up-to-date: /home/umrob/M2/ros-2-planar-robot-p-4/install/ros2_planar_robot/include/ros2_planar_robot/ros2_planar_robot/msg/detail/joint_velocity__type_support.cpp
-- Up-to-date: /home/umrob/M2/ros-2-planar-robot-p-4/install/ros2_planar_robot/include/ros2_planar_robot/ros2_planar_robot/msg/detail/cartesian_state__rosidl_typesupport_introspection_cpp.hpp
-- Up-to-date: /home/umrob/M2/ros-2-planar-robot-p-4/install/ros2_planar_robot/include/ros2_planar_robot/ros2_planar_robot/msg/detail/pose__rosidl_typesupport_introspection_cpp.hpp
-- Up-to-date: /home/umrob/M2/ros-2-planar-robot-p-4/install/ros2_planar_robot/include/ros2_planar_robot/ros2_planar_robot/msg/detail/ref_pose__type_support.cpp
-- Up-to-date: /home/umrob/M2/ros-2-planar-robot-p-4/install/ros2_planar_robot/include/ros2_planar_robot/ros2_planar_robot/msg/detail/velocity__type_support.cpp
-- Up-to-date: /home/umrob/M2/ros-2-planar-robot-p-4/install/ros2_planar_robot/include/ros2_planar_robot/ros2_planar_robot/msg/detail/joint_position__type_support.cpp
-- Up-to-date: /home/umrob/M2/ros-2-planar-robot-p-4/install/ros2_planar_robot/lib/libros2_planar_robot__rosidl_typesupport_introspection_cpp.so
-- Up-to-date: /home/umrob/M2/ros-2-planar-robot-p-4/install/ros2_planar_robot/lib/libros2_planar_robot__rosidl_typesupport_cpp.so
-- Up-to-date: /home/umrob/M2/ros-2-planar-robot-p-4/install/ros2_planar_robot/share/ros2_planar_robot/environment/pythonpath.sh
-- Installing: /home/umrob/M2/ros-2-planar-robot-p-4/install/ros2_planar_robot/share/ros2_planar_robot/environment/pythonpath.dsv
-- Up-to-date: /home/umrob/M2/ros-2-planar-robot-p-4/install/ros2_planar_robot/local/lib/python3.10/dist-packages/ros2_planar_robot-0.0.0-py3.10.egg-info
-- Installing: /home/umrob/M2/ros-2-planar-robot-p-4/install/ros2_planar_robot/local/lib/python3.10/dist-packages/ros2_planar_robot-0.0.0-py3.10.egg-info/dependency_links.txt
-- Installing: /home/umrob/M2/ros-2-planar-robot-p-4/install/ros2_planar_robot/local/lib/python3.10/dist-packages/ros2_planar_robot-0.0.0-py3.10.egg-info/SOURCES.txt
-- Installing: /home/umrob/M2/ros-2-planar-robot-p-4/install/ros2_planar_robot/local/lib/python3.10/dist-packages/ros2_planar_robot-0.0.0-py3.10.egg-info/PKG-INFO
-- Installing: /home/umrob/M2/ros-2-planar-robot-p-4/install/ros2_planar_robot/local/lib/python3.10/dist-packages/ros2_planar_robot-0.0.0-py3.10.egg-info/top_level.txt
-- Up-to-date: /home/umrob/M2/ros-2-planar-robot-p-4/install/ros2_planar_robot/local/lib/python3.10/dist-packages/ros2_planar_robot
-- Up-to-date: /home/umrob/M2/ros-2-planar-robot-p-4/install/ros2_planar_robot/local/lib/python3.10/dist-packages/ros2_planar_robot/_ros2_planar_robot_s.ep.rosidl_typesupport_c.c
-- Up-to-date: /home/umrob/M2/ros-2-planar-robot-p-4/install/ros2_planar_robot/local/lib/python3.10/dist-packages/ros2_planar_robot/ros2_planar_robot_s__rosidl_typesupport_fastrtps_c.cpython-38-x86_64-linux-gnu.so
-- Up-to-date: /home/umrob/M2/ros-2-planar-robot-p-4/install/ros2_planar_robot/local/lib/python3.10/dist-packages/ros2_planar_robot/_ros2_planar_robot_s.ep.rosidl_typesupport_introspection_c.c
-- Up-to-date: /home/umrob/M2/ros-2-planar-robot-p-4/install/ros2_planar_robot/local/lib/python3.10/dist-packages/ros2_planar_robot/_ros2_planar_robot_s.ep.rosidl_typesupport_fastrtps_c.c
-- Up-to-date: /home/umrob/M2/ros-2-planar-robot-p-4/install/ros2_planar_robot/local/lib/python3.10/dist-packages/ros2_planar_robot/ros2_planar_robot_s__rosidl_typesupport_introspection_c.cpython-38-x86_64-linux-gnu.so
-- Up-to-date: /home/umrob/M2/ros-2-planar-robot-p-4/install/ros2_planar_robot/local/lib/python3.10/dist-packages/ros2_planar_robot/msg
-- Up-to-date: /home/umrob/M2/ros-2-planar-robot-p-4/install/ros2_planar_robot/local/lib/python3.10/dist-packages/ros2_planar_robot/msg/_ref_pose.py
-- Up-to-date: /home/umrob/M2/ros-2-planar-robot-p-4/install/ros2_planar_robot/local/lib/python3.10/dist-packages/ros2_planar_robot/msg/_kin_data.py
-- Up-to-date: /home/umrob/M2/ros-2-planar-robot-p-4/install/ros2_planar_robot/local/lib/python3.10/dist-packages/ros2_planar_robot/msg/_velocity_s.c
-- Up-to-date: /home/umrob/M2/ros-2-planar-robot-p-4/install/ros2_planar_robot/local/lib/python3.10/dist-packages/ros2_planar_robot/msg/_kin_data_s.c
-- Up-to-date: /home/umrob/M2/ros-2-planar-robot-p-4/install/ros2_planar_robot/local/lib/python3.10/dist-packages/ros2_planar_robot/msg/_cartesian_state.py
-- Up-to-date: /home/umrob/M2/ros-2-planar-robot-p-4/install/ros2_planar_robot/local/lib/python3.10/dist-packages/ros2_planar_robot/msg/_joint_velocity_s.c
-- Up-to-date: /home/umrob/M2/ros-2-planar-robot-p-4/install/ros2_planar_robot/local/lib/python3.10/dist-packages/ros2_planar_robot/msg/_joint_position_s.c
-- Up-to-date: /home/umrob/M2/ros-2-planar-robot-p-4/install/ros2_planar_robot/local/lib/python3.10/dist-packages/ros2_planar_robot/msg/_pose.py
-- Up-to-date: /home/umrob/M2/ros-2-planar-robot-p-4/install/ros2_planar_robot/local/lib/python3.10/dist-packages/ros2_planar_robot/msg/_cartesian_state_s.c
-- Up-to-date: /home/umrob/M2/ros-2-planar-robot-p-4/install/ros2_planar_robot/local/lib/python3.10/dist-packages/ros2_planar_robot/msg/_joint_position.py
-- Up-to-date: /home/umrob/M2/ros-2-planar-robot-p-4/install/ros2_planar_robot/local/lib/python3.10/dist-packages/ros2_planar_robot/msg/_ref_pose_s.c
-- Up-to-date: /home/umrob/M2/ros-2-planar-robot-p-4/install/ros2_planar_robot/local/lib/python3.10/dist-packages/ros2_planar_robot/msg/_pose_s.c
-- Up-to-date: /home/umrob/M2/ros-2-planar-robot-p-4/install/ros2_planar_robot/local/lib/python3.10/dist-packages/ros2_planar_robot/msg/__init__.py
-- Up-to-date: /home/umrob/M2/ros-2-planar-robot-p-4/install/ros2_planar_robot/local/lib/python3.10/dist-packages/ros2_planar_robot/msg/_joint_velocity.py
-- Up-to-date: /home/umrob/M2/ros-2-planar-robot-p-4/install/ros2_planar_robot/local/lib/python3.10/dist-packages/ros2_planar_robot/msg/_velocity.py
-- Up-to-date: /home/umrob/M2/ros-2-planar-robot-p-4/install/ros2_planar_robot/local/lib/python3.10/dist-packages/ros2_planar_robot/libros2_planar_robot__rosidl_generator_py.so
-- Installing: /home/umrob/M2/ros-2-planar-robot-p-4/install/ros2_planar_robot/local/lib/python3.10/dist-packages/ros2_planar_robot/__init__.py
-- Up-to-date: /home/umrob/M2/ros-2-planar-robot-p-4/install/ros2_planar_robot/local/lib/python3.10/dist-packages/ros2_planar_robot/ros2_planar_robot_s__rosidl_typesupport_c.cpython-38-x86_64-linux-gnu.so
Listing '/home/umrob/M2/ros-2-planar-robot-p-4/install/ros2_planar_robot/local/lib/python3.10/dist-packages/ros2_planar_robot'...
Compiling '/home/umrob/M2/ros-2-planar-robot-p-4/install/ros2_planar_robot/local/lib/python3.10/dist-packages/ros2_planar_robot/__init__.py'...
Listing '/home/umrob/M2/ros-2-planar-robot-p-4/install/ros2_planar_robot/local/lib/python3.10/dist-packages/ros2_planar_robot/msg'...
-- Up-to-date: /home/umrob/M2/ros-2-planar-robot-p-4/install/ros2_planar_robot/local/lib/python3.10/dist-packages/ros2_planar_robot/ros2_planar_robot_s__rosidl_typesupport_fastrtps_c.cpython-38-x86_64-linux-gnu.so
-- Up-to-date: /home/umrob/M2/ros-2-planar-robot-p-4/install/ros2_planar_robot/local/lib/python3.10/dist-packages/ros2_planar_robot/ros2_planar_robot_s__rosidl_typesupport_introspection_c.cpython-38-x86_64-linux-gnu.so
-- Up-to-date: /home/umrob/M2/ros-2-planar-robot-p-4/install/ros2_planar_robot/local/lib/python3.10/dist-packages/ros2_planar_robot/ros2_planar_robot_s__rosidl_typesupport_c.cpython-38-x86_64-linux-gnu.so
-- Up-to-date: /home/umrob/M2/ros-2-planar-robot-p-4/install/ros2_planar_robot/lib/libros2_planar_robot__rosidl_generator_py.so
-- Up-to-date: /home/umrob/M2/ros-2-planar-robot-p-4/install/ros2_planar_robot/share/ros2_planar_robot/msg/RefPose.idl
-- Up-to-date: /home/umrob/M2/ros-2-planar-robot-p-4/install/ros2_planar_robot/share/ros2_planar_robot/msg/Pose.idl
-- Up-to-date: /home/umrob/M2/ros-2-planar-robot-p-4/install/ros2_planar_robot/share/ros2_planar_robot/msg/JointPosition.idl
-- Up-to-date: /home/umrob/M2/ros-2-planar-robot-p-4/install/ros2_planar_robot/share/ros2_planar_robot/msg/JointVelocity.idl
-- Up-to-date: /home/umrob/M2/ros-2-planar-robot-p-4/install/ros2_planar_robot/share/ros2_planar_robot/msg/CartesianState.idl
-- Up-to-date: /home/umrob/M2/ros-2-planar-robot-p-4/install/ros2_planar_robot/share/ros2_planar_robot/msg/Velocity.idl
-- Up-to-date: /home/umrob/M2/ros-2-planar-robot-p-4/install/ros2_planar_robot/share/ros2_planar_robot/msg/KinData.idl
-- Up-to-date: /home/umrob/M2/ros-2-planar-robot-p-4/install/ros2_planar_robot/share/ros2_planar_robot/msg/RefPose.msg
-- Up-to-date: /home/umrob/M2/ros-2-planar-robot-p-4/install/ros2_planar_robot/share/ros2_planar_robot/msg/Pose.msg
-- Up-to-date: /home/umrob/M2/ros-2-planar-robot-p-4/install/ros2_planar_robot/share/ros2_planar_robot/msg/JointPosition.msg
-- Up-to-date: /home/umrob/M2/ros-2-planar-robot-p-4/install/ros2_planar_robot/share/ros2_planar_robot/msg/JointVelocity.msg
-- Up-to-date: /home/umrob/M2/ros-2-planar-robot-p-4/install/ros2_planar_robot/share/ros2_planar_robot/msg/CartesianState.msg
-- Up-to-date: /home/umrob/M2/ros-2-planar-robot-p-4/install/ros2_planar_robot/share/ros2_planar_robot/msg/Velocity.msg
-- Up-to-date: /home/umrob/M2/ros-2-planar-robot-p-4/install/ros2_planar_robot/share/ros2_planar_robot/msg/KinData.msg
-- Up-to-date: /home/umrob/M2/ros-2-planar-robot-p-4/install/ros2_planar_robot/lib/ros2_planar_robot/trajectory_generator
-- Up-to-date: /home/umrob/M2/ros-2-planar-robot-p-4/install/ros2_planar_robot/lib/ros2_planar_robot/high_lev_mng
-- Up-to-date: /home/umrob/M2/ros-2-planar-robot-p-4/install/ros2_planar_robot/lib/ros2_planar_robot/controller
-- Up-to-date: /home/umrob/M2/ros-2-planar-robot-p-4/install/ros2_planar_robot/lib/ros2_planar_robot/kinematic_modeller
-- Up-to-date: /home/umrob/M2/ros-2-planar-robot-p-4/install/ros2_planar_robot/lib/ros2_planar_robot/simulator
-- Up-to-date: /home/umrob/M2/ros-2-planar-robot-p-4/install/ros2_planar_robot/lib/ros2_planar_robot/disturbance_generator
-- Up-to-date: /home/umrob/M2/ros-2-planar-robot-p-4/install/ros2_planar_robot/lib/libtrajectory_generation_lib.so
-- Up-to-date: /home/umrob/M2/ros-2-planar-robot-p-4/install/ros2_planar_robot/lib/libcontrol_lib.so
-- Up-to-date: /home/umrob/M2/ros-2-planar-robot-p-4/install/ros2_planar_robot/lib/libkinematic_model_lib.so
-- Installing: /home/umrob/M2/ros-2-planar-robot-p-4/install/ros2_planar_robot/share/ament_index/resource_index/package_run_dependencies/ros2_planar_robot
-- Installing: /home/umrob/M2/ros-2-planar-robot-p-4/install/ros2_planar_robot/share/ament_index/resource_index/parent_prefix_path/ros2_planar_robot
-- Up-to-date: /home/umrob/M2/ros-2-planar-robot-p-4/install/ros2_planar_robot/share/ros2_planar_robot/environment/ament_prefix_path.sh
-- Installing: /home/umrob/M2/ros-2-planar-robot-p-4/install/ros2_planar_robot/share/ros2_planar_robot/environment/ament_prefix_path.dsv
-- Up-to-date: /home/umrob/M2/ros-2-planar-robot-p-4/install/ros2_planar_robot/share/ros2_planar_robot/environment/path.sh
-- Installing: /home/umrob/M2/ros-2-planar-robot-p-4/install/ros2_planar_robot/share/ros2_planar_robot/environment/path.dsv
-- Up-to-date: /home/umrob/M2/ros-2-planar-robot-p-4/install/ros2_planar_robot/share/ros2_planar_robot/local_setup.bash
-- Up-to-date: /home/umrob/M2/ros-2-planar-robot-p-4/install/ros2_planar_robot/share/ros2_planar_robot/local_setup.sh
-- Up-to-date: /home/umrob/M2/ros-2-planar-robot-p-4/install/ros2_planar_robot/share/ros2_planar_robot/local_setup.zsh
-- Installing: /home/umrob/M2/ros-2-planar-robot-p-4/install/ros2_planar_robot/share/ros2_planar_robot/local_setup.dsv
-- Installing: /home/umrob/M2/ros-2-planar-robot-p-4/install/ros2_planar_robot/share/ros2_planar_robot/package.dsv
-- Up-to-date: /home/umrob/M2/ros-2-planar-robot-p-4/install/ros2_planar_robot/share/ament_index/resource_index/packages/ros2_planar_robot
-- Up-to-date: /home/umrob/M2/ros-2-planar-robot-p-4/install/ros2_planar_robot/share/ros2_planar_robot/cmake/export_ros2_planar_robot__rosidl_generator_cExport.cmake
-- Up-to-date: /home/umrob/M2/ros-2-planar-robot-p-4/install/ros2_planar_robot/share/ros2_planar_robot/cmake/export_ros2_planar_robot__rosidl_generator_cExport-noconfig.cmake
-- Up-to-date: /home/umrob/M2/ros-2-planar-robot-p-4/install/ros2_planar_robot/share/ros2_planar_robot/cmake/export_ros2_planar_robot__rosidl_typesupport_fastrtps_cExport.cmake
-- Up-to-date: /home/umrob/M2/ros-2-planar-robot-p-4/install/ros2_planar_robot/share/ros2_planar_robot/cmake/export_ros2_planar_robot__rosidl_typesupport_fastrtps_cExport-noconfig.cmake
-- Up-to-date: /home/umrob/M2/ros-2-planar-robot-p-4/install/ros2_planar_robot/share/ros2_planar_robot/cmake/export_ros2_planar_robot__rosidl_generator_cppExport.cmake
-- Up-to-date: /home/umrob/M2/ros-2-planar-robot-p-4/install/ros2_planar_robot/share/ros2_planar_robot/cmake/export_ros2_planar_robot__rosidl_typesupport_fastrtps_cppExport.cmake
-- Up-to-date: /home/umrob/M2/ros-2-planar-robot-p-4/install/ros2_planar_robot/share/ros2_planar_robot/cmake/export_ros2_planar_robot__rosidl_typesupport_fastrtps_cppExport-noconfig.cmake
-- Up-to-date: /home/umrob/M2/ros-2-planar-robot-p-4/install/ros2_planar_robot/share/ros2_planar_robot/cmake/ros2_planar_robot__rosidl_typesupport_introspection_cExport.cmake
-- Up-to-date: /home/umrob/M2/ros-2-planar-robot-p-4/install/ros2_planar_robot/share/ros2_planar_robot/cmake/ros2_planar_robot__rosidl_typesupport_introspection_cExport-noconfig.cmake
-- Up-to-date: /home/umrob/M2/ros-2-planar-robot-p-4/install/ros2_planar_robot/share/ros2_planar_robot/cmake/ros2_planar_robot__rosidl_typesupport_cExport.cmake
-- Up-to-date: /home/umrob/M2/ros-2-planar-robot-p-4/install/ros2_planar_robot/share/ros2_planar_robot/cmake/ros2_planar_robot__rosidl_typesupport_cExport-noconfig.cmake
-- Up-to-date: /home/umrob/M2/ros-2-planar-robot-p-4/install/ros2_planar_robot/share/ros2_planar_robot/cmake/ros2_planar_robot__rosidl_typesupport_introspection_cppExport.cmake
-- Up-to-date: /home/umrob/M2/ros-2-planar-robot-p-4/install/ros2_planar_robot/share/ros2_planar_robot/cmake/ros2_planar_robot__rosidl_typesupport_introspection_cppExport-noconfig.cmake
-- Up-to-date: /home/umrob/M2/ros-2-planar-robot-p-4/install/ros2_planar_robot/share/ros2_planar_robot/cmake/ros2_planar_robot__rosidl_typesupport_cppExport.cmake
-- Up-to-date: /home/umrob/M2/ros-2-planar-robot-p-4/install/ros2_planar_robot/share/ros2_planar_robot/cmake/ros2_planar_robot__rosidl_typesupport_cppExport-noconfig.cmake
-- Up-to-date: /home/umrob/M2/ros-2-planar-robot-p-4/install/ros2_planar_robot/share/ros2_planar_robot/cmake/export_ros2_planar_robot__rosidl_generator_pyExport.cmake
-- Up-to-date: /home/umrob/M2/ros-2-planar-robot-p-4/install/ros2_planar_robot/share/ros2_planar_robot/cmake/export_ros2_planar_robot__rosidl_generator_pyExport-noconfig.cmake
-- Up-to-date: /home/umrob/M2/ros-2-planar-robot-p-4/install/ros2_planar_robot/share/ros2_planar_robot/cmake/rosidl_cmake-extras.cmake
-- Up-to-date: /home/umrob/M2/ros-2-planar-robot-p-4/install/ros2_planar_robot/share/ros2_planar_robot/cmake/ament_cmake_export_include_directories-extras.cmake
-- Up-to-date: /home/umrob/M2/ros-2-planar-robot-p-4/install/ros2_planar_robot/share/ros2_planar_robot/cmake/ament_cmake_export_libraries-extras.cmake
-- Up-to-date: /home/umrob/M2/ros-2-planar-robot-p-4/install/ros2_planar_robot/share/ros2_planar_robot/cmake/ament_cmake_export_targets-extras.cmake
-- Up-to-date: /home/umrob/M2/ros-2-planar-robot-p-4/install/ros2_planar_robot/share/ros2_planar_robot/cmake/rosidl_cmake_export_typesupport_targets-extras.cmake
-- Up-to-date: /home/umrob/M2/ros-2-planar-robot-p-4/install/ros2_planar_robot/share/ros2_planar_robot/cmake/ament_cmake_export_dependencies-extras.cmake
-- Up-to-date: /home/umrob/M2/ros-2-planar-robot-p-4/install/ros2_planar_robot/share/ros2_planar_robot/cmake/rosidl_cmake_export_typesupport_libraries-extras.cmake
-- Up-to-date: /home/umrob/M2/ros-2-planar-robot-p-4/install/ros2_planar_robot/share/ros2_planar_robot/cmake/ros2_planar_robotConfig.cmake
-- Up-to-date: /home/umrob/M2/ros-2-planar-robot-p-4/install/ros2_planar_robot/share/ros2_planar_robot/cmake/ros2_planar_robotConfig-version.cmake
-- Installing: /home/umrob/M2/ros-2-planar-robot-p-4/install/ros2_planar_robot/share/ros2_planar_robot/package.xml
